%YAML 1.1
%TAG !u! tag:unity3d.com,2011:
--- !u!1045 &1
EditorBuildSettings:
  m_ObjectHideFlags: 0
  serializedVersion: 2
  m_Scenes:
  - enabled: 1
    path: Assets/Photon/PhotonUnityNetworking/Demos/PunBasics-Tutorial/Scenes/PunBasics-Launcher.unity
    guid: bff77b01b50254edbb6edeeaba5ae8b3
  - enabled: 1
    path: Assets/Laboratory/Scenes/Playground-FPC-PunNet.unity
    guid: d71300d39075ef7468f7f48fde0d5cde
  m_configObjects: {}
